Wilayah,Aceh,Sumut,Sumbar,Sumsel,Riau,KepRiau,Banten,Jabar,Jateng,DIY,Jatim,Bali,NTB,NTT,Kalbar,Sulut,Sulsel,Jayapura,TOTAL
ASEAN,24889,157943,45653,11157,24054,1932942,972281,137649,16006,95030,248791,553531,47126,293,65571,2312,8864,1901,4345993
Asia (Ex. ASEAN),1564,27268,1210,1514,3259,528171,972496,8796,3546,12016,46439,2379090,12529,83474,2906,108962,1813,125,4195178
Timur Tengah,89,903,95,93,69,1042,217537,537,56,146,913,44681,218,1,62,2,47,0,266491
Eropa,1870,27229,2746,556,919,103447,404757,4428,2251,24539,15543,1376905,14334,1608,1189,7901,2659,88,1992969
Amerika,413,5605,1070,274,869,30948,132196,2103,871,4624,7398,364902,2500,277,405,1846,450,78,556829
Afrika,56,519,200,26,161,4108,25575,339,134,220,694,55880,351,14,60,81,34,2,88454
Oseania,332,5700,3395,206,428,35006,87640,1519,406,2025,3186,1282510,1872,247,385,997,248,101881,1527983